Copyright 1986-2022 Xilinx, Inc. All Rights Reserved. Copyright 2022-2023 Advanced Micro Devices, Inc. All Rights Reserved.
---------------------------------------------------------------------------------------------------------------------------------------------
| Tool Version : Vivado v.2023.1 (win64) Build 3865809 Sun May  7 15:05:29 MDT 2023
| Date         : Thu Sep 21 12:22:46 2023
| Host         : pcbe17101 running 64-bit major release  (build 9200)
| Command      : report_control_sets -verbose -file design_1_wrapper_control_sets_placed.rpt
| Design       : design_1_wrapper
| Device       : xczu9eg
---------------------------------------------------------------------------------------------------------------------------------------------

Control Set Information

Table of Contents
-----------------
1. Summary
2. Histogram
3. Flip-Flop Distribution
4. Detailed Control Set Information

1. Summary
----------

+----------------------------------------------------------+-------+
|                          Status                          | Count |
+----------------------------------------------------------+-------+
| Total control sets                                       |    66 |
|    Minimum number of control sets                        |    66 |
|    Addition due to synthesis replication                 |     0 |
|    Addition due to physical synthesis replication        |     0 |
| Unused register locations in slices containing registers |    69 |
+----------------------------------------------------------+-------+
* Control sets can be merged at opt_design using control_set_merge or merge_equivalent_drivers
** Run report_qor_suggestions for automated merging and remapping suggestions


2. Histogram
------------

+--------------------+-------+
|       Fanout       | Count |
+--------------------+-------+
| Total control sets |    66 |
| >= 0 to < 4        |    17 |
| >= 4 to < 6        |     9 |
| >= 6 to < 8        |     2 |
| >= 8 to < 10       |    19 |
| >= 10 to < 12      |     0 |
| >= 12 to < 14      |     0 |
| >= 14 to < 16      |     0 |
| >= 16              |    19 |
+--------------------+-------+
* Control sets can be remapped at either synth_design or opt_design


3. Flip-Flop Distribution
-------------------------

+--------------+-----------------------+------------------------+-----------------+--------------+
| Clock Enable | Synchronous Set/Reset | Asynchronous Set/Reset | Total Registers | Total Slices |
+--------------+-----------------------+------------------------+-----------------+--------------+
| No           | No                    | No                     |             123 |           48 |
| No           | No                    | Yes                    |               2 |            2 |
| No           | Yes                   | No                     |              42 |           19 |
| Yes          | No                    | No                     |             462 |           69 |
| Yes          | No                    | Yes                    |              27 |            6 |
| Yes          | Yes                   | No                     |             255 |           49 |
+--------------+-----------------------+------------------------+-----------------+--------------+


4. Detailed Control Set Information
-----------------------------------

+------------------------------------------+----------------------------------------------------------------------------------------------------------------------------------------------------------+----------------------------------------------------------------------------------------------------------------------------------+------------------+----------------+--------------+
|               Clock Signal               |                                                                       Enable Signal                                                                      |                                                         Set/Reset Signal                                                         | Slice Load Count | Bel Load Count | Bels / Slice |
+------------------------------------------+----------------------------------------------------------------------------------------------------------------------------------------------------------+----------------------------------------------------------------------------------------------------------------------------------+------------------+----------------+--------------+
|  design_1_i/zynq_ultra_ps_e_0/U0/pl_clk0 | design_1_i/ps8_0_axi_periph/xbar/inst/gen_sasd.crossbar_sasd_0/reg_slice_r/aa_rready                                                                     |                                                                                                                                  |                1 |              1 |         1.00 |
|  design_1_i/clk_wiz_0/inst/clk_out1      |                                                                                                                                                          |                                                                                                                                  |                1 |              1 |         1.00 |
|  design_1_i/clk_wiz_0/inst/clk_out1      | design_1_i/spi_IP_21_9_0/U0/spi_IP_21_9_v1_0_S00_AXI_inst/AD5781_inst/ldacn_o_i_1_n_0                                                                    | design_1_i/clk_wiz_0/inst/locked                                                                                                 |                1 |              1 |         1.00 |
|  design_1_i/clk_wiz_0/inst/clk_out1      | design_1_i/spi_IP_21_9_0/U0/spi_IP_21_9_v1_0_S00_AXI_inst/AD5781_inst/FSM_onehot_state_reg_n_0_[2]                                                       | design_1_i/clk_wiz_0/inst/locked                                                                                                 |                1 |              1 |         1.00 |
|  design_1_i/clk_wiz_0/inst/clk_out1      | design_1_i/spi_IP_21_9_0/U0/spi_IP_21_9_v1_0_S00_AXI_inst/AD5781_inst/sdi_o_i_1_n_0                                                                      |                                                                                                                                  |                1 |              1 |         1.00 |
|  design_1_i/zynq_ultra_ps_e_0/U0/pl_clk0 |                                                                                                                                                          | design_1_i/ps8_0_axi_periph/xbar/inst/gen_sasd.crossbar_sasd_0/gen_decerr.decerr_slave_inst/aresetn_d_reg[0]                     |                1 |              2 |         2.00 |
|  design_1_i/zynq_ultra_ps_e_0/U0/pl_clk0 |                                                                                                                                                          | design_1_i/ps8_0_axi_periph/xbar/inst/gen_sasd.crossbar_sasd_0/addr_arbiter_inst/s_arvalid_reg                                   |                1 |              2 |         2.00 |
|  design_1_i/zynq_ultra_ps_e_0/U0/pl_clk0 | design_1_i/spi_IP_21_9_0/U0/spi_IP_21_9_v1_0_S00_AXI_inst/axi_arready0                                                                                   | design_1_i/rst_ps8_0_99M/U0/peripheral_aresetn[0]                                                                                |                1 |              2 |         2.00 |
|  design_1_i/zynq_ultra_ps_e_0/U0/pl_clk0 | design_1_i/ps8_0_axi_periph/s00_couplers/auto_pc/inst/gen_axilite.gen_b2s_conv.axilite_b2s/WR.aw_channel_0/aw_cmd_fsm_0/shandshake_r_reg[0]              | design_1_i/ps8_0_axi_periph/s00_couplers/auto_pc/inst/gen_axilite.gen_b2s_conv.axilite_b2s/areset_d1                             |                1 |              2 |         2.00 |
|  design_1_i/zynq_ultra_ps_e_0/U0/pl_clk0 | design_1_i/ps8_0_axi_periph/s00_couplers/auto_pc/inst/gen_axilite.gen_b2s_conv.axilite_b2s/WR.b_channel_0/bresp_fifo_0/E[0]                              | design_1_i/ps8_0_axi_periph/s00_couplers/auto_pc/inst/gen_axilite.gen_b2s_conv.axilite_b2s/WR.b_channel_0/bid_fifo_0/SR[0]       |                1 |              2 |         2.00 |
|  design_1_i/zynq_ultra_ps_e_0/U0/pl_clk0 | design_1_i/spi_IP_21_9_0/U0/spi_IP_21_9_v1_0_S00_AXI_inst/axi_awready0                                                                                   | design_1_i/rst_ps8_0_99M/U0/peripheral_aresetn[0]                                                                                |                1 |              2 |         2.00 |
|  design_1_i/zynq_ultra_ps_e_0/U0/pl_clk0 | design_1_i/ps8_0_axi_periph/s00_couplers/auto_pc/inst/gen_axilite.gen_b2s_conv.axilite_b2s/WR.b_channel_0/bid_fifo_0/bresp_push                          |                                                                                                                                  |                1 |              2 |         2.00 |
|  design_1_i/zynq_ultra_ps_e_0/U0/pl_clk0 | design_1_i/ps8_0_axi_periph/s00_couplers/auto_pc/inst/gen_axilite.gen_b2s_conv.axilite_b2s/WR.b_channel_0/bid_fifo_0/E[0]                                | design_1_i/ps8_0_axi_periph/s00_couplers/auto_pc/inst/gen_axilite.gen_b2s_conv.axilite_b2s/areset_d1                             |                1 |              2 |         2.00 |
|  design_1_i/clk_wiz_0/inst/clk_out1      |                                                                                                                                                          | design_1_i/clk_wiz_0/inst/locked                                                                                                 |                2 |              2 |         1.00 |
|  design_1_i/zynq_ultra_ps_e_0/U0/pl_clk0 |                                                                                                                                                          | design_1_i/ps8_0_axi_periph/xbar/inst/gen_sasd.crossbar_sasd_0/addr_arbiter_inst/m_ready_d_reg[0][0]                             |                2 |              3 |         1.50 |
|  design_1_i/zynq_ultra_ps_e_0/U0/pl_clk0 | design_1_i/ps8_0_axi_periph/xbar/inst/gen_sasd.crossbar_sasd_0/addr_arbiter_inst/m_grant_enc_i                                                           | design_1_i/ps8_0_axi_periph/xbar/inst/gen_sasd.crossbar_sasd_0/aresetn_d                                                         |                1 |              3 |         3.00 |
|  design_1_i/clk_wiz_0/inst/clk_out1      | design_1_i/spi_IP_21_9_0/U0/spi_IP_21_9_v1_0_S00_AXI_inst/AD5781_inst/FSM_onehot_state[2]_i_1_n_0                                                        | design_1_i/clk_wiz_0/inst/locked                                                                                                 |                1 |              3 |         3.00 |
|  design_1_i/zynq_ultra_ps_e_0/U0/pl_clk0 |                                                                                                                                                          | design_1_i/rst_ps8_0_99M/U0/EXT_LPF/lpf_int                                                                                      |                2 |              4 |         2.00 |
|  design_1_i/zynq_ultra_ps_e_0/U0/pl_clk0 | design_1_i/ps8_0_axi_periph/s00_couplers/auto_pc/inst/gen_axilite.gen_b2s_conv.axilite_b2s/WR.aw_channel_0/aw_cmd_fsm_0/FSM_sequential_state_reg[1]_1[0] |                                                                                                                                  |                3 |              4 |         1.33 |
|  design_1_i/zynq_ultra_ps_e_0/U0/pl_clk0 |                                                                                                                                                          | design_1_i/ps8_0_axi_periph/s00_couplers/auto_pc/inst/gen_axilite.gen_b2s_conv.axilite_b2s/SI_REG/b.b_pipe/aresetn_d_reg_n_0_[1] |                4 |              4 |         1.00 |
|  design_1_i/zynq_ultra_ps_e_0/U0/pl_clk0 |                                                                                                                                                          | design_1_i/ps8_0_axi_periph/s00_couplers/auto_pc/inst/gen_axilite.gen_b2s_conv.axilite_b2s/SI_REG/ar.ar_pipe/aresetn_d_reg[0]_1  |                4 |              4 |         1.00 |
|  design_1_i/zynq_ultra_ps_e_0/U0/pl_clk0 | design_1_i/ps8_0_axi_periph/s00_couplers/auto_pc/inst/gen_axilite.gen_b2s_conv.axilite_b2s/WR.aw_channel_0/aw_cmd_fsm_0/E[0]                             |                                                                                                                                  |                2 |              4 |         2.00 |
|  design_1_i/zynq_ultra_ps_e_0/U0/pl_clk0 | design_1_i/ps8_0_axi_periph/s00_couplers/auto_pc/inst/gen_axilite.gen_b2s_conv.axilite_b2s/RD.ar_channel_0/ar_cmd_fsm_0/E[0]                             |                                                                                                                                  |                2 |              4 |         2.00 |
|  design_1_i/zynq_ultra_ps_e_0/U0/pl_clk0 | design_1_i/ps8_0_axi_periph/s00_couplers/auto_pc/inst/gen_axilite.gen_b2s_conv.axilite_b2s/RD.ar_channel_0/ar_cmd_fsm_0/FSM_sequential_state_reg[1]_2[0] |                                                                                                                                  |                2 |              4 |         2.00 |
|  design_1_i/zynq_ultra_ps_e_0/U0/pl_clk0 | design_1_i/ps8_0_axi_periph/s00_couplers/auto_pc/inst/gen_axilite.gen_b2s_conv.axilite_b2s/RD.r_channel_0/transaction_fifo_0/E[0]                        | design_1_i/ps8_0_axi_periph/s00_couplers/auto_pc/inst/gen_axilite.gen_b2s_conv.axilite_b2s/areset_d1                             |                2 |              5 |         2.50 |
|  design_1_i/zynq_ultra_ps_e_0/U0/pl_clk0 | design_1_i/ps8_0_axi_periph/s00_couplers/auto_pc/inst/gen_axilite.gen_b2s_conv.axilite_b2s/RD.r_channel_0/transaction_fifo_0/cnt_read[4]_i_1__0_n_0      | design_1_i/ps8_0_axi_periph/s00_couplers/auto_pc/inst/gen_axilite.gen_b2s_conv.axilite_b2s/areset_d1                             |                2 |              5 |         2.50 |
|  design_1_i/zynq_ultra_ps_e_0/U0/pl_clk0 |                                                                                                                                                          | design_1_i/ps8_0_axi_periph/s00_couplers/auto_pc/inst/gen_axilite.gen_b2s_conv.axilite_b2s/areset_d1                             |                4 |              6 |         1.50 |
|  design_1_i/zynq_ultra_ps_e_0/U0/pl_clk0 | design_1_i/rst_ps8_0_99M/U0/SEQ/seq_cnt_en                                                                                                               | design_1_i/rst_ps8_0_99M/U0/SEQ/seq_clr                                                                                          |                2 |              6 |         3.00 |
|  design_1_i/zynq_ultra_ps_e_0/U0/pl_clk0 | design_1_i/spi_IP_21_9_0/U0/spi_IP_21_9_v1_0_S00_AXI_inst/slv_reg1[15]_i_1_n_0                                                                           | design_1_i/rst_ps8_0_99M/U0/peripheral_aresetn[0]                                                                                |                3 |              8 |         2.67 |
|  design_1_i/zynq_ultra_ps_e_0/U0/pl_clk0 | design_1_i/spi_IP_21_9_0/U0/spi_IP_21_9_v1_0_S00_AXI_inst/slv_reg1[31]_i_1_n_0                                                                           | design_1_i/rst_ps8_0_99M/U0/peripheral_aresetn[0]                                                                                |                5 |              8 |         1.60 |
|  design_1_i/zynq_ultra_ps_e_0/U0/pl_clk0 | design_1_i/spi_IP_21_9_0/U0/spi_IP_21_9_v1_0_S00_AXI_inst/slv_reg2[23]_i_1_n_0                                                                           | design_1_i/rst_ps8_0_99M/U0/peripheral_aresetn[0]                                                                                |                5 |              8 |         1.60 |
|  design_1_i/zynq_ultra_ps_e_0/U0/pl_clk0 | design_1_i/spi_IP_21_9_0/U0/spi_IP_21_9_v1_0_S00_AXI_inst/slv_reg2[31]_i_1_n_0                                                                           | design_1_i/rst_ps8_0_99M/U0/peripheral_aresetn[0]                                                                                |                5 |              8 |         1.60 |
|  design_1_i/zynq_ultra_ps_e_0/U0/pl_clk0 | design_1_i/spi_IP_21_9_0/U0/spi_IP_21_9_v1_0_S00_AXI_inst/p_1_in[23]                                                                                     | design_1_i/rst_ps8_0_99M/U0/peripheral_aresetn[0]                                                                                |                4 |              8 |         2.00 |
|  design_1_i/zynq_ultra_ps_e_0/U0/pl_clk0 | design_1_i/spi_IP_21_9_0/U0/spi_IP_21_9_v1_0_S00_AXI_inst/p_1_in[15]                                                                                     | design_1_i/rst_ps8_0_99M/U0/peripheral_aresetn[0]                                                                                |                3 |              8 |         2.67 |
|  design_1_i/zynq_ultra_ps_e_0/U0/pl_clk0 | design_1_i/ps8_0_axi_periph/s00_couplers/auto_pc/inst/gen_axilite.gen_b2s_conv.axilite_b2s/WR.b_channel_0/mhandshake_r                                   | design_1_i/ps8_0_axi_periph/s00_couplers/auto_pc/inst/gen_axilite.gen_b2s_conv.axilite_b2s/WR.b_channel_0/bid_fifo_0/SR[0]       |                2 |              8 |         4.00 |
|  design_1_i/zynq_ultra_ps_e_0/U0/pl_clk0 |                                                                                                                                                          | design_1_i/rst_ps8_0_99M/U0/peripheral_aresetn[0]                                                                                |                3 |              8 |         2.67 |
|  design_1_i/zynq_ultra_ps_e_0/U0/pl_clk0 | design_1_i/spi_IP_21_9_0/U0/spi_IP_21_9_v1_0_S00_AXI_inst/slv_reg0[23]_i_1_n_0                                                                           | design_1_i/rst_ps8_0_99M/U0/peripheral_aresetn[0]                                                                                |                3 |              8 |         2.67 |
|  design_1_i/zynq_ultra_ps_e_0/U0/pl_clk0 | design_1_i/spi_IP_21_9_0/U0/spi_IP_21_9_v1_0_S00_AXI_inst/slv_reg0[31]_i_1_n_0                                                                           | design_1_i/rst_ps8_0_99M/U0/peripheral_aresetn[0]                                                                                |                5 |              8 |         1.60 |
|  design_1_i/zynq_ultra_ps_e_0/U0/pl_clk0 | design_1_i/spi_IP_21_9_0/U0/spi_IP_21_9_v1_0_S00_AXI_inst/slv_reg0[7]_i_1_n_0                                                                            | design_1_i/rst_ps8_0_99M/U0/peripheral_aresetn[0]                                                                                |                2 |              8 |         4.00 |
|  design_1_i/zynq_ultra_ps_e_0/U0/pl_clk0 | design_1_i/spi_IP_21_9_0/U0/spi_IP_21_9_v1_0_S00_AXI_inst/slv_reg0[15]_i_1_n_0                                                                           | design_1_i/rst_ps8_0_99M/U0/peripheral_aresetn[0]                                                                                |                1 |              8 |         8.00 |
|  design_1_i/zynq_ultra_ps_e_0/U0/pl_clk0 | design_1_i/spi_IP_21_9_0/U0/spi_IP_21_9_v1_0_S00_AXI_inst/p_1_in[31]                                                                                     | design_1_i/rst_ps8_0_99M/U0/peripheral_aresetn[0]                                                                                |                6 |              8 |         1.33 |
|  design_1_i/zynq_ultra_ps_e_0/U0/pl_clk0 | design_1_i/spi_IP_21_9_0/U0/spi_IP_21_9_v1_0_S00_AXI_inst/slv_reg2[15]_i_1_n_0                                                                           | design_1_i/rst_ps8_0_99M/U0/peripheral_aresetn[0]                                                                                |                3 |              8 |         2.67 |
|  design_1_i/zynq_ultra_ps_e_0/U0/pl_clk0 | design_1_i/spi_IP_21_9_0/U0/spi_IP_21_9_v1_0_S00_AXI_inst/p_1_in[7]                                                                                      | design_1_i/rst_ps8_0_99M/U0/peripheral_aresetn[0]                                                                                |                2 |              8 |         4.00 |
|  design_1_i/zynq_ultra_ps_e_0/U0/pl_clk0 | design_1_i/spi_IP_21_9_0/U0/spi_IP_21_9_v1_0_S00_AXI_inst/slv_reg1[7]_i_1_n_0                                                                            | design_1_i/rst_ps8_0_99M/U0/peripheral_aresetn[0]                                                                                |                2 |              8 |         4.00 |
|  design_1_i/zynq_ultra_ps_e_0/U0/pl_clk0 | design_1_i/spi_IP_21_9_0/U0/spi_IP_21_9_v1_0_S00_AXI_inst/slv_reg1[23]_i_1_n_0                                                                           | design_1_i/rst_ps8_0_99M/U0/peripheral_aresetn[0]                                                                                |                5 |              8 |         1.60 |
|  design_1_i/zynq_ultra_ps_e_0/U0/pl_clk0 | design_1_i/spi_IP_21_9_0/U0/spi_IP_21_9_v1_0_S00_AXI_inst/slv_reg2[7]_i_1_n_0                                                                            | design_1_i/rst_ps8_0_99M/U0/peripheral_aresetn[0]                                                                                |                2 |              8 |         4.00 |
|  design_1_i/zynq_ultra_ps_e_0/U0/pl_clk0 |                                                                                                                                                          | design_1_i/ps8_0_axi_periph/xbar/inst/gen_sasd.crossbar_sasd_0/aresetn_d                                                         |                5 |              9 |         1.80 |
|  design_1_i/zynq_ultra_ps_e_0/U0/pl_clk0 | design_1_i/ps8_0_axi_periph/s00_couplers/auto_pc/inst/gen_axilite.gen_b2s_conv.axilite_b2s/RD.r_channel_0/r_push_r                                       |                                                                                                                                  |                4 |             17 |         4.25 |
|  design_1_i/zynq_ultra_ps_e_0/U0/pl_clk0 | design_1_i/ps8_0_axi_periph/s00_couplers/auto_pc/inst/gen_axilite.gen_b2s_conv.axilite_b2s/RD.ar_channel_0/ar_cmd_fsm_0/m_valid_i_reg[0]                 |                                                                                                                                  |                7 |             18 |         2.57 |
|  design_1_i/zynq_ultra_ps_e_0/U0/pl_clk0 | design_1_i/ps8_0_axi_periph/s00_couplers/auto_pc/inst/gen_axilite.gen_b2s_conv.axilite_b2s/SI_REG/b.b_pipe/p_1_in                                        |                                                                                                                                  |                3 |             18 |         6.00 |
|  design_1_i/zynq_ultra_ps_e_0/U0/pl_clk0 | design_1_i/ps8_0_axi_periph/s00_couplers/auto_pc/inst/gen_axilite.gen_b2s_conv.axilite_b2s/SI_REG/b.b_pipe/s_ready_i_reg_0                               |                                                                                                                                  |                3 |             18 |         6.00 |
|  design_1_i/zynq_ultra_ps_e_0/U0/pl_clk0 | design_1_i/ps8_0_axi_periph/s00_couplers/auto_pc/inst/gen_axilite.gen_b2s_conv.axilite_b2s/WR.aw_channel_0/aw_cmd_fsm_0/FSM_sequential_state_reg[1]_2[0] |                                                                                                                                  |                7 |             18 |         2.57 |
|  design_1_i/clk_wiz_0/inst/clk_out1      | design_1_i/spi_IP_21_9_0/U0/spi_IP_21_9_v1_0_S00_AXI_inst/AD5781_inst/shift_reg[23]_i_1_n_0                                                              | design_1_i/clk_wiz_0/inst/locked                                                                                                 |                5 |             22 |         4.40 |
|  design_1_i/zynq_ultra_ps_e_0/U0/pl_clk0 | design_1_i/ps8_0_axi_periph/s00_couplers/auto_pc/inst/gen_axilite.gen_b2s_conv.axilite_b2s/WR.aw_channel_0/aw_cmd_fsm_0/FSM_sequential_state_reg[1]_0    |                                                                                                                                  |                2 |             24 |        12.00 |
|  design_1_i/zynq_ultra_ps_e_0/U0/pl_clk0 | design_1_i/ps8_0_axi_periph/xbar/inst/gen_sasd.crossbar_sasd_0/addr_arbiter_inst/p_0_in                                                                  | design_1_i/ps8_0_axi_periph/xbar/inst/gen_sasd.crossbar_sasd_0/aresetn_d                                                         |                8 |             26 |         3.25 |
|  design_1_i/zynq_ultra_ps_e_0/U0/pl_clk0 | design_1_i/spi_IP_21_9_0/U0/spi_IP_21_9_v1_0_S00_AXI_inst/axi_rvalid05_out                                                                               | design_1_i/rst_ps8_0_99M/U0/peripheral_aresetn[0]                                                                                |               16 |             32 |         2.00 |
|  design_1_i/zynq_ultra_ps_e_0/U0/pl_clk0 | design_1_i/ps8_0_axi_periph/xbar/inst/gen_sasd.crossbar_sasd_0/reg_slice_r/aa_rready                                                                     | design_1_i/ps8_0_axi_periph/xbar/inst/gen_sasd.crossbar_sasd_0/reg_slice_r/skid_buffer[32]_i_1_n_0                               |                7 |             32 |         4.57 |
|  design_1_i/zynq_ultra_ps_e_0/U0/pl_clk0 | design_1_i/ps8_0_axi_periph/xbar/inst/gen_sasd.crossbar_sasd_0/addr_arbiter_inst/E[0]                                                                    |                                                                                                                                  |               10 |             34 |         3.40 |
|  design_1_i/zynq_ultra_ps_e_0/U0/pl_clk0 | design_1_i/ps8_0_axi_periph/s00_couplers/auto_pc/inst/gen_axilite.gen_b2s_conv.axilite_b2s/RD.r_channel_0/rd_data_fifo_0/wr_en0                          |                                                                                                                                  |                5 |             34 |         6.80 |
|  design_1_i/zynq_ultra_ps_e_0/U0/pl_clk0 | design_1_i/ps8_0_axi_periph/s00_couplers/auto_pc/inst/gen_axilite.gen_b2s_conv.axilite_b2s/SI_REG/r.r_pipe/p_1_in                                        |                                                                                                                                  |               10 |             51 |         5.10 |
|  design_1_i/zynq_ultra_ps_e_0/U0/pl_clk0 | design_1_i/ps8_0_axi_periph/s00_couplers/auto_pc/inst/gen_axilite.gen_b2s_conv.axilite_b2s/SI_REG/r.r_pipe/s_ready_i_reg_0                               |                                                                                                                                  |               10 |             51 |         5.10 |
|  design_1_i/zynq_ultra_ps_e_0/U0/pl_clk0 | design_1_i/ps8_0_axi_periph/s00_couplers/auto_pc/inst/gen_axilite.gen_b2s_conv.axilite_b2s/SI_REG/ar.ar_pipe/s_ready_i_reg_0                             |                                                                                                                                  |               12 |             59 |         4.92 |
|  design_1_i/zynq_ultra_ps_e_0/U0/pl_clk0 | design_1_i/ps8_0_axi_periph/s00_couplers/auto_pc/inst/gen_axilite.gen_b2s_conv.axilite_b2s/SI_REG/aw.aw_pipe/s_ready_i_reg_0                             |                                                                                                                                  |               14 |             59 |         4.21 |
|  design_1_i/zynq_ultra_ps_e_0/U0/pl_clk0 | design_1_i/ps8_0_axi_periph/s00_couplers/auto_pc/inst/gen_axilite.gen_b2s_conv.axilite_b2s/WR.aw_channel_0/aw_cmd_fsm_0/m_valid_i_reg_1[0]               |                                                                                                                                  |               14 |             59 |         4.21 |
|  design_1_i/zynq_ultra_ps_e_0/U0/pl_clk0 | design_1_i/ps8_0_axi_periph/s00_couplers/auto_pc/inst/gen_axilite.gen_b2s_conv.axilite_b2s/RD.ar_channel_0/ar_cmd_fsm_0/FSM_sequential_state_reg[1]_3[0] |                                                                                                                                  |               12 |             59 |         4.92 |
|  design_1_i/zynq_ultra_ps_e_0/U0/pl_clk0 |                                                                                                                                                          |                                                                                                                                  |               47 |            123 |         2.62 |
+------------------------------------------+----------------------------------------------------------------------------------------------------------------------------------------------------------+----------------------------------------------------------------------------------------------------------------------------------+------------------+----------------+--------------+


