# compile vhdl design source files
vhdl xil_defaultlib  \
"../../../../HSSL_Protocol.srcs/sources_1/new/HSSL_reader.vhd" \
"../../../../HSSL_Protocol.srcs/sim_1/new/HSSL_reader_tb.vhd" \

# Do not sort compile order
nosort
