Design Route Status
                                               :      # nets :
   ------------------------------------------- : ----------- :
   # of logical nets.......................... :        1824 :
       # of nets not needing routing.......... :         445 :
           # of internally routed nets........ :         445 :
       # of routable nets..................... :        1379 :
           # of fully routed nets............. :        1379 :
       # of nets with routing errors.......... :           0 :
   ------------------------------------------- : ----------- :

